%YAML 1.1
%TAG !u! tag:unity3d.com,2011:
--- !u!114 &11400000
MonoBehaviour:
  m_ObjectHideFlags: 0
  m_CorrespondingSourceObject: {fileID: 0}
  m_PrefabInstance: {fileID: 0}
  m_PrefabAsset: {fileID: 0}
  m_GameObject: {fileID: 0}
  m_Enabled: 1
  m_EditorHideFlags: 0
  m_Script: {fileID: 11500000, guid: f016fa54d6471a1429eb2aef3c32632a, type: 3}
  m_Name: Apple
  m_EditorClassIdentifier: 
  name: Apple
  icon: {fileID: 21300000, guid: 5ecc79381d29cd94c80c1c4736adeb80, type: 3}
  gameObject: {fileID: 8772449136189204783, guid: 1de6b16ee4ada404488256018c4f40a6,
    type: 3}
  isDefaultItem: 0
